{
  "sponsors": [
    {
      "name": "Arsala Grey",
      "email": "arsala@grey.software",
      "startDate": "August 12, 2020",
      "endDate": "October 10, 2021"
    },
    {
      "name": "Milind V.",
      "email": "milindvishnoi@gmail.com",
      "startDate": "August 20, 2020",
      "endDate": "September 20, 2021"
    },
    {
      "name": "Shoaib Khan",
      "email": "k.shoaib272@gmail.com",
      "startDate": "January 10, 2021",
      "endDate": "October 10, 2021"
    },
    {
      "name": "Chris Lim",
      "email": "hello@hiimchrislim.co",
      "startDate": "September 5, 2020",
      "endDate": "October 4, 2021"
    },
    {
      "name": "Matic Zavadlal",
      "email": "matic.zavadlal@gmail.com",
      "startDate": "September 13, 2020",
      "endDate": "October 14, 2021"
    }
  ]
}